
{
  "data":
    {
      "title": "gnusocial",
      "category": "social network",
      "type": "microblogging",
      "logoClr": "a22430",
      "created": "2010",
      "official": "https://gnu.io/social",
      "license": "AGPL-3.0",
      "repo": "https://git.gnu.io/gnu/gnu-social",
      "language": "PHP",
      "protocols":
        [{"title": "OStatus", "url": "https://github.com/OStatus"}],
      "wiki": "",
      "servers":
        [
          {"num": "1", "url": "https://fediverse.joinout.de"},
          {"num": "2", "url": "https://fediverse.network/gnusocial"},
          {"num": "3", "url": "https://the-federation.info/gnusocial"}
        ],
      "mobile": "https://gitlab.com/distributopia/gnusocial-clients",
      "tutorials":
        [
          {"id": "0", "url": "http://thomask.sdf.org/social/en/user/getting_started.html"},
          {"id": "1", "url": "https://gnusocial.net/doc/faq"}
        ],
      "devTutorials": "http://thomask.sdf.org/social/en/admin/installing_gnu_social.html",
      "utilities":
        [
          {"id": "0", "url": "https://github.com/blankoworld/eli"},
          {"id": "1", "url": "https://github.com/mitchellurgero/fediwiki/blob/master/plugins.md"}
        ],
      "mascot": [{"item": "gnu"}],
      "dwellers": "GNU-hackers",
      "communities": [{"title": "List of groups", "url": "http://laemeur.sdf.org/gs/group-index.html"}],
      "descr": "GNU Social creators are the founding fathers of free libre microblogging networks. The platform has a significant userbase and multiple plugins.",
      "connections": ["Friendica", "Hubzilla", "Mastodon", "Pleroma", "postActiv"],
      "tracker": "https://git.gnu.io/gnu/gnu-social/issues",
      "bounty": "",
      "translating": "https://www.transifex.com/gnu-social/gnu-social",
      "reading":
        [
          {
            "title": "GNU social: Federation against the social model of Twitter",
            "url": "https://lasindias.blog/gnu-social-federation-against-the-social-model-twitter"
          },
          {
            "title": "Wikipedia article",
            "url": "https://en.wikipedia.org/wiki/GNU_social"
          }
        ],
      "notable":
        [
          {
            "name": "FSF",
            "url": "https://status.fsf.org/fsf",
            "avatar": "/img/avatars/fsf.png"
          }
        ]
    }
}
