{
  "data":
    {
      "title": "pleroma",
      "category": "social network",
      "type": "microblogging",
      "logoClr": "fba457",
      "created": "2017",
      "official": "https://pleroma.social",
      "license": "AGPL-3.0",
      "repo": "https://git.pleroma.social/pleroma",
      "language": "Elixir",
      "protocols":
        [
          {"title": "OStatus", "url": "https://github.com/tootsuite/ostatus2"},
          {"title": "ActivityPub", "url": "https://activitypub.rocks"}
        ],
      "wiki": "",
      "servers":
        [
          {"num": "1", "url": "https://the-federation.info/pleroma"},
          {"num": "2", "url": "https://fediverse.network/pleroma"},
          {"num": "3", "url": "http://distsn.org/pleroma-instances.html"}
        ],
      "mobile": "https://github.com/tootsuite/documentation/blob/master/Using-Mastodon/Apps.md#mobile-clients",
      "forUsers":
        [
          {"id": "0", "url": "https://vinayaka.distsn.org"}
        ],
      "tutorials":
        [
          {"id": "0", "url": "https://i2p.rocks/blog/the-magical-world-of-pleroma-setting-up-your-instance.html"},
          {"id": "1", "url": "https://git.pleroma.social/pleroma/pleroma-fe/wikis/dual-boot-with-qvitter"}
        ],
      "devTutorials": "https://git.pleroma.social/pleroma/pleroma/wikis/home",
      "mascot": [{"item": "?"}],
      "dwellers": "?",
      "communities": "",
      "descr": "Pleroma microblogging platform was quickly appreciated by the community for its low resource consumption. If you have a Raspberry Pi or similar single-board computer you can use it as Pleroma server for family and friends.",
      "connections": ["Friendica", "GNU Social", "Hubzilla", "Mastodon", "microblog.pub", "Misskey", "Peertube", "Pleroma", "Plume", "postActiv", "WriteFreely"],
      "tracker": "https://git.pleroma.social/pleroma/pleroma/issues",
      "bounty": "",
      "translating": "",
      "reading":
        [
          {
            "title": "What is Pleroma",
            "url": "https://blog.soykaf.com/post/what-is-pleroma"
          },
          {
            "title": "ActivityPub in Pleroma",
            "url": "https://blog.soykaf.com/post/activity-pub-in-pleroma"
          },
          {
            "title": "Gopher Support in Pleroma",
            "url": "https://blog.soykaf.com/post/gopher-support-in-pleroma"
          },
          {
            "title": "Hacking the Pleroma: Elixir, Phoenix and a bit of ActivityPub",
            "url": "https://github.com/wimvanderbauwhede/limited-systems/wiki/Hacking-the-Pleroma:-Elixir,-Phoenix-and-a-bit-of-ActivityPub"
          },
          {
            "title": "Blushy-Crushy Fediverse Idol: A Chat with Lain about Pleroma",
            "url": "https://medium.com/we-distribute/blushy-crushy-fediverse-idol-a-chat-with-lain-about-pleroma-4ff578b99752"
          }
        ],
      "notable": ""
    }
}
